-------------------------------------------------------------------------------
Test set: lei.tqs.cache.WeatherRepositoryTest
-------------------------------------------------------------------------------
Tests run: 4, Failures: 0, Errors: 0, Skipped: 0, Time elapsed: 12.684 s - in lei.tqs.cache.WeatherRepositoryTest
