-------------------------------------------------------------------------------
Test set: lei.tqs.services.DarkSkyUtilTest
-------------------------------------------------------------------------------
Tests run: 7, Failures: 0, Errors: 0, Skipped: 0, Time elapsed: 0.044 s - in lei.tqs.services.DarkSkyUtilTest
