-------------------------------------------------------------------------------
Test set: lei.tqs.services.NominatimUtilTest
-------------------------------------------------------------------------------
Tests run: 7, Failures: 0, Errors: 0, Skipped: 0, Time elapsed: 0.823 s - in lei.tqs.services.NominatimUtilTest
